module gitlab.com/satang

go 1.20

require (
	github.com/ethereum/go-ethereum v1.11.6
	github.com/golang/mock v1.6.0
	github.com/google/uuid v1.3.0
	github.com/labstack/echo v3.3.10+incompatible
	github.com/labstack/echo/v4 v4.10.2
	github.com/spf13/viper v1.15.0
	gopkg.in/go-playground/assert.v1 v1.2.1
	gorm.io/driver/mysql v1.5.1
	gorm.io/gorm v1.25.1
)

require (
	github.com/StackExchange/wmi v0.0.0-20180116203802-5d049714c4a6 // indirect
	github.com/btcsuite/btcd/btcec/v2 v2.2.0 // indirect
	github.com/deckarep/golang-set/v2 v2.1.0 // indirect
	github.com/decred/dcrd/dcrec/secp256k1/v4 v4.0.1 // indirect
	github.com/fsnotify/fsnotify v1.6.0 // indirect
	github.com/go-ole/go-ole v1.2.1 // indirect
	github.com/go-sql-driver/mysql v1.7.0 // indirect
	github.com/go-stack/stack v1.8.1 // indirect
	github.com/golang-jwt/jwt v3.2.2+incompatible // indirect
	github.com/gorilla/websocket v1.4.2 // indirect
	github.com/hashicorp/hcl v1.0.0 // indirect
	github.com/holiman/uint256 v1.2.2-0.20230321075855-87b91420868c // indirect
	github.com/jinzhu/inflection v1.0.0 // indirect
	github.com/jinzhu/now v1.1.5 // indirect
	github.com/labstack/gommon v0.4.0 // indirect
	github.com/magiconair/properties v1.8.7 // indirect
	github.com/mattn/go-colorable v0.1.13 // indirect
	github.com/mattn/go-isatty v0.0.17 // indirect
	github.com/mitchellh/mapstructure v1.5.0 // indirect
	github.com/pelletier/go-toml/v2 v2.0.6 // indirect
	github.com/shirou/gopsutil v3.21.4-0.20210419000835-c7a38de76ee5+incompatible // indirect
	github.com/spf13/afero v1.9.3 // indirect
	github.com/spf13/cast v1.5.0 // indirect
	github.com/spf13/jwalterweatherman v1.1.0 // indirect
	github.com/spf13/pflag v1.0.5 // indirect
	github.com/subosito/gotenv v1.4.2 // indirect
	github.com/tklauser/go-sysconf v0.3.5 // indirect
	github.com/tklauser/numcpus v0.2.2 // indirect
	github.com/valyala/bytebufferpool v1.0.0 // indirect
	github.com/valyala/fasttemplate v1.2.2 // indirect
	golang.org/x/crypto v0.6.0 // indirect
	golang.org/x/net v0.8.0 // indirect
	golang.org/x/sys v0.6.0 // indirect
	golang.org/x/text v0.8.0 // indirect
	golang.org/x/time v0.3.0 // indirect
	gopkg.in/ini.v1 v1.67.0 // indirect
	gopkg.in/natefinch/npipe.v2 v2.0.0-20160621034901-c1b8fa8bdcce // indirect
	gopkg.in/yaml.v3 v3.0.1 // indirect
)
